{
  "project": {
    "name": "Enter your email here",
    "campaign": "Enter the campaign name",
    "brand": "Hillarys",
    "plainText": "Enter plain text here",
    "phoneNumber": "XXX-XXX-XXX",
    "baseUrl": "https://www.hillarys.co.uk",
    "termsConditions": ""
  },
  "tracking": {
    "prefix": "https://ad.doubleclick.net/ddm/clk/444612762;248365123;f?",
    "suffix": "?source=84&utm_source=customernews&utm_medium=email&utm_campaign=Blackout",
    "nameurn": "&nameurn={(exp_key_db_Person)}"
  }
}